Many models in R | RICH RYAN
…
## # A tibble: 2 x 2
##   series_name          data              
##   <chr>                <list>            
## 1 All items            <tibble [701 x 5]>
## 2 Less food and energy <tibble [701 x 5]>

Each row of the data column is data frame:

dat$data[[1]]

## # A tibble: 701 x 5
##    symbol   date       price  infl    ur
##    <chr>    <date>     <dbl> <dbl> <dbl>
##  1 CPIAUCSL 1961-01-01  29.8 1.60    6.6
##  2 CPIAUCSL 1961-02-01  29.8 1.46    6.9
##  3 CPIAUCSL 1961-03-01  29.8 1.46    6.9
##  4 CPIAUCSL 1961-04-01  29.8 0.914   7  
##  5 CPIAUCSL 1961-05-01  29.8 0.913   7.1
##  6 CPIAUCSL 1961-06-01  29.8 0.777   6.9
##  7 CPIAUCSL 1961-07-01  29.9 1.25    7  
##  8 CPIAUCSL 1961-08-01  29.9 1.11    6.6
##  9 CPIAUCSL 1961-09-01  30.0 1.25    6.7
## 10 CPIAUCSL 1961-10-01  30.0 0.773   6.5
## # ... with 691 more rows
…
